(footprint "Pin_P2.54mm_Round" (version 20210228) (generator pcbnew) (layer "F.Cu")
  (tedit 6075F8F9)
  (descr "Through hole straight pin, 2.54mm pitch")
  (tags "Through hole pin THT 1x01 2.54mm single row")
  (attr through_hole exclude_from_pos_files exclude_from_bom)
  (fp_text reference "REF**" (at 0 -2.33) (layer "F.SilkS")
    (effects (font (size 1 1) (thickness 0.15)))
    (tstamp 00000000-0000-0000-0000-000000000000)
  )
  (fp_text value "Pin_P2.54mm_Round" (at 0 2.33) (layer "F.Fab")
    (effects (font (size 1 1) (thickness 0.15)))
    (tstamp 00000000-0000-0000-0000-000000000000)
  )
  (fp_text user "${REFERENCE}" (at 0 0) (layer "F.Fab")
    (effects (font (size 1 1) (thickness 0.15)))
    (tstamp 00000000-0000-0000-0000-000000000000)
  )
  (fp_line (start -1.27 1.27) (end 1.27 1.27) (layer "F.CrtYd") (width 0.05) (tstamp 00000000-0000-0000-0000-000000000000))
  (fp_line (start -1.27 -1.27) (end -1.27 1.27) (layer "F.CrtYd") (width 0.05) (tstamp 00000000-0000-0000-0000-000000000000))
  (fp_line (start 1.27 1.27) (end 1.27 -1.27) (layer "F.CrtYd") (width 0.05) (tstamp 00000000-0000-0000-0000-000000000000))
  (fp_line (start 1.27 -1.27) (end -1.27 -1.27) (layer "F.CrtYd") (width 0.05) (tstamp 00000000-0000-0000-0000-000000000000))
  (fp_line (start -1.27 1.27) (end -1.27 -1.27) (layer "F.Fab") (width 0.1) (tstamp 00000000-0000-0000-0000-000000000000))
  (fp_line (start -1.27 -1.27) (end 1.27 -1.27) (layer "F.Fab") (width 0.1) (tstamp 00000000-0000-0000-0000-000000000000))
  (fp_line (start 1.27 1.27) (end -1.27 1.27) (layer "F.Fab") (width 0.1) (tstamp 00000000-0000-0000-0000-000000000000))
  (fp_line (start 1.27 -1.27) (end 1.27 1.27) (layer "F.Fab") (width 0.1) (tstamp 00000000-0000-0000-0000-000000000000))
  (pad "1" thru_hole circle (at 0 0) (locked) (size 1.7 1.7) (drill 1) (layers *.Cu *.Mask) (tstamp 00000000-0000-0000-0000-000000000000))
  (model "${KICAD6_3DMODEL_DIR}/Connector_PinHeader_2.54mm.3dshapes/PinHeader_1x01_P2.54mm_Vertical.wrl"
    (offset (xyz 0 0 0))
    (scale (xyz 1 1 1))
    (rotate (xyz 0 0 0))
  )
  (model "${KICAD6_3DMODEL_DIR}/Connector_PinSocket_2.54mm.3dshapes/PinSocket_1x01_P2.54mm_Vertical.wrl"
    (offset (xyz 0 0 0))
    (scale (xyz 1 1 1))
    (rotate (xyz 0 0 0))
  )
)
