(footprint "USB_C_Receptacle_HRO_TYPE-C-31-M-12" (version 20210228) (generator pcbnew) (layer "F.Cu")
  (tedit 6075F1F4)
  (descr "USB Type-C receptacle for USB 2.0 and PD, http://www.krhro.com/uploads/soft/180320/1-1P320120243.pdf")
  (tags "usb usb-c 2.0 pd")
  (attr smd)
  (fp_text reference "REF**" (at 0 -5.645) (layer "F.SilkS")
    (effects (font (size 1 1) (thickness 0.15)))
    (tstamp f23debd9-d6c5-42e1-a545-2bc397ab1aa4)
  )
  (fp_text value "USB_C_Receptacle_HRO_TYPE-C-31-M-12" (at 0 5.1) (layer "F.Fab")
    (effects (font (size 1 1) (thickness 0.15)))
    (tstamp bf9a26fe-e136-42f6-9282-a00717c8759a)
  )
  (fp_text user "${REFERENCE}" (at 0 0) (layer "F.Fab")
    (effects (font (size 1 1) (thickness 0.15)))
    (tstamp 01bc2b38-de6a-43c5-bdf4-93aa445814bb)
  )
  (fp_line (start -4.7 2) (end -4.7 3.9) (layer "F.SilkS") (width 0.12) (tstamp 1ab010e8-0ab8-4f60-a588-a2255e63eaab))
  (fp_line (start -4.7 -1.9) (end -4.7 0.1) (layer "F.SilkS") (width 0.12) (tstamp 21930a64-18c7-4672-b7c1-497bd595d688))
  (fp_line (start 4.7 -1.9) (end 4.7 0.1) (layer "F.SilkS") (width 0.12) (tstamp 3f60acad-9ae0-486c-9bbb-7f09aaca3c8b))
  (fp_line (start 4.7 2) (end 4.7 3.9) (layer "F.SilkS") (width 0.12) (tstamp 9917a5e7-1460-4d31-a5d5-2814d4d0288d))
  (fp_line (start -4.7 3.9) (end 4.7 3.9) (layer "F.SilkS") (width 0.12) (tstamp caa37531-39a5-4792-8fd0-3f9a5de6ec17))
  (fp_line (start -5.32 -5.27) (end 5.32 -5.27) (layer "F.CrtYd") (width 0.05) (tstamp 1786a23d-16ef-44d5-bd95-7415854fce2f))
  (fp_line (start -5.32 4.15) (end 5.32 4.15) (layer "F.CrtYd") (width 0.05) (tstamp 9bf14431-c305-494d-b9d9-39a3a7a4c8d7))
  (fp_line (start 5.32 -5.27) (end 5.32 4.15) (layer "F.CrtYd") (width 0.05) (tstamp a4454ce5-ef61-4490-9412-804c9793f544))
  (fp_line (start -5.32 -5.27) (end -5.32 4.15) (layer "F.CrtYd") (width 0.05) (tstamp f6862c62-b302-4a13-97c0-b2fc14731938))
  (fp_line (start -4.47 -3.65) (end -4.47 3.65) (layer "F.Fab") (width 0.1) (tstamp 0fb3daae-220e-4500-a0c3-80d4d00ada4b))
  (fp_line (start 4.47 -3.65) (end 4.47 3.65) (layer "F.Fab") (width 0.1) (tstamp 7d42c024-e95e-451c-bde7-7310c6393356))
  (fp_line (start -4.47 -3.65) (end 4.47 -3.65) (layer "F.Fab") (width 0.1) (tstamp 90136e70-d797-482b-86dc-7a328d6eac60))
  (fp_line (start -4.47 3.65) (end 4.47 3.65) (layer "F.Fab") (width 0.1) (tstamp a5e1b7bb-2950-4ab1-bd14-9da326f388f3))
  (pad "" np_thru_hole circle (at -2.89 -2.6) (size 0.65 0.65) (drill 0.65) (layers *.Cu *.Mask) (tstamp 160dcfd2-451a-4a5d-a500-295c94b7ce2c))
  (pad "" np_thru_hole circle (at 2.89 -2.6) (size 0.65 0.65) (drill 0.65) (layers *.Cu *.Mask) (tstamp b0250cc1-004f-4c8f-9069-538629a39446))
  (pad "A1" smd roundrect (at -3.25 -4.045) (size 0.6 1.45) (layers "F.Cu" "F.Paste" "F.Mask") (roundrect_rratio 0.125) (tstamp 6aae5f65-e3ec-4c7d-b77e-460b1459e043))
  (pad "A4" smd roundrect (at -2.45 -4.045) (size 0.6 1.45) (layers "F.Cu" "F.Paste" "F.Mask") (roundrect_rratio 0.125) (tstamp 4715c006-4960-44de-9c58-f9cc935bd77d))
  (pad "A5" smd roundrect (at -1.25 -4.045) (size 0.3 1.45) (layers "F.Cu" "F.Paste" "F.Mask") (roundrect_rratio 0.25) (tstamp cfafafcb-ff1a-4a17-8e67-1ab709fac2f3))
  (pad "A6" smd roundrect (at -0.25 -4.045) (size 0.3 1.45) (layers "F.Cu" "F.Paste" "F.Mask") (roundrect_rratio 0.25) (tstamp 575a7a33-bbc2-4a2e-9ca8-bc558b21565e))
  (pad "A7" smd roundrect (at 0.25 -4.045) (size 0.3 1.45) (layers "F.Cu" "F.Paste" "F.Mask") (roundrect_rratio 0.25) (tstamp 81a93113-6a2d-4359-857b-a9bd53b2897e))
  (pad "A8" smd roundrect (at 1.25 -4.045) (size 0.3 1.45) (layers "F.Cu" "F.Paste" "F.Mask") (roundrect_rratio 0.25) (tstamp 027b1eae-3c17-49ec-b067-0f40907cd5f4))
  (pad "A9" smd roundrect (at 2.45 -4.045) (size 0.6 1.45) (layers "F.Cu" "F.Paste" "F.Mask") (roundrect_rratio 0.125) (tstamp 2d02a50e-44a2-4361-a6e8-3232638b144e))
  (pad "A12" smd roundrect (at 3.25 -4.045) (size 0.6 1.45) (layers "F.Cu" "F.Paste" "F.Mask") (roundrect_rratio 0.125) (tstamp 754743fa-edb7-4081-8cce-0697bb7b2630))
  (pad "B1" smd roundrect (at 3.25 -4.045) (size 0.6 1.45) (layers "F.Cu" "F.Paste" "F.Mask") (roundrect_rratio 0.125) (tstamp 894bcb2c-9e17-4d3b-8437-a922e096ec69))
  (pad "B4" smd roundrect (at 2.45 -4.045) (size 0.6 1.45) (layers "F.Cu" "F.Paste" "F.Mask") (roundrect_rratio 0.125) (tstamp 64f18329-4a69-4e16-9a9b-b3a547659e74))
  (pad "B5" smd roundrect (at 1.75 -4.045) (size 0.3 1.45) (layers "F.Cu" "F.Paste" "F.Mask") (roundrect_rratio 0.25) (tstamp 9041384f-73e8-4b92-8908-d342f0fe9097))
  (pad "B6" smd roundrect (at 0.75 -4.045) (size 0.3 1.45) (layers "F.Cu" "F.Paste" "F.Mask") (roundrect_rratio 0.25) (tstamp 21b86105-1d1e-4d91-b5d8-5ce656be2ab1))
  (pad "B7" smd roundrect (at -0.75 -4.045) (size 0.3 1.45) (layers "F.Cu" "F.Paste" "F.Mask") (roundrect_rratio 0.25) (tstamp 060f6146-76b3-4855-bdbe-80f4d558b8ac))
  (pad "B8" smd roundrect (at -1.75 -4.045) (size 0.3 1.45) (layers "F.Cu" "F.Paste" "F.Mask") (roundrect_rratio 0.25) (tstamp 5aef09f3-cee0-4eb1-bd5a-b62db299b589))
  (pad "B9" smd roundrect (at -2.45 -4.045) (size 0.6 1.45) (layers "F.Cu" "F.Paste" "F.Mask") (roundrect_rratio 0.125) (tstamp 53d56e34-923b-4208-ab68-bab814e7edae))
  (pad "B12" smd roundrect (at -3.25 -4.045) (size 0.6 1.45) (layers "F.Cu" "F.Paste" "F.Mask") (roundrect_rratio 0.125) (tstamp c2f1ee49-bf94-480d-81bd-9f5bf99dbdc8))
  (pad "S1" thru_hole oval (at -4.32 -3.13) (size 1 2.1) (drill oval 0.6 1.7) (layers *.Cu *.Mask) (tstamp 41827466-00de-4e1c-8239-758be8d812ad))
  (pad "S1" thru_hole oval (at 4.32 -3.13) (size 1 2.1) (drill oval 0.6 1.7) (layers *.Cu *.Mask) (tstamp 506e0bab-79c7-4e7b-abb0-8fe2c3173708))
  (pad "S1" thru_hole oval (at 4.32 1.05) (size 1 1.6) (drill oval 0.6 1.2) (layers *.Cu *.Mask) (tstamp 809bba3b-445e-4f9c-b447-90c07619bb0f))
  (pad "S1" thru_hole oval (at -4.32 1.05) (size 1 1.6) (drill oval 0.6 1.2) (layers *.Cu *.Mask) (tstamp e7a5fb4f-6899-4008-81a9-d3baf5f03aff))
  (model "${KISYS3DMOD}/Connector_USB.3dshapes/USB_C_Receptacle_HRO_TYPE-C-31-M-12.wrl"
    (offset (xyz 0 0 0))
    (scale (xyz 1 1 1))
    (rotate (xyz 0 0 0))
  )
  (model "${KIPRJMOD}/../lib/Jordi/Jordi.3dshapes/HRO_TYPE-C-31-M-12.step"
    (offset (xyz -4.465 -3.65 0))
    (scale (xyz 1 1 1))
    (rotate (xyz 0 0 0))
  )
)
